<?xml version="1.0" encoding="utf-8"?>
<!-- Generator: Adobe Illustrator 24.3.0, SVG Export Plug-In . SVG Version: 6.00 Build 0)  -->
<svg version="1.1" id="Layer_1" xmlns="http://www.w3.org/2000/svg" xmlns:xlink="http://www.w3.org/1999/xlink" x="0px" y="0px"
	 viewBox="0 0 96 126" style="enable-background:new 0 0 96 126;" xml:space="preserve">
<style type="text/css">
	.st0{fill-rule:evenodd;clip-rule:evenodd;fill:#FFFFFF;}
	.st1{fill:#2D2D2B;}
</style>
<polygon id="White-BG" class="st0" points="46,0 96,0 96,126 46,126 46,95.6 5.6,94.4 43.2,38.6 "/>
<polygon id="_x34_" class="st1" points="83.5,126 83.5,124.9 70.8,116.7 70.8,97.1 95.6,97.1 95.6,93.7 70.8,93.7 70.6,38.6 
	69.3,38.8 46,62.2 46,93.7 6.8,93.7 76.9,1.1 76.9,0 46.1,0 1.2,95.2 1.2,97.1 45.8,97.1 45.8,116.7 33.3,124.9 33.3,126 "/>
</svg>
